{
  "objectId" : "7YLMMa7Y32",
  "itemIds" : [
    "stKajFzUrD",
    "7jfZBQu5S8"
  ],
  "groupName" : "CHICKEN WINGS",
  "items" : [
    {
      "mediaArray" : [
        {
          "__type" : "File",
          "name" : "regular_chicken_wings",
          "url" : "https:\/\/s3-us-west-2.amazonaws.com\/wlmerchants\/SHP\/regular_chicken_wings.jpg"
        }
      ],
      "itemDescription" : "",
      "live" : true,
      "itemName" : "Regular Chicken Wings",
      "optionCategories" : [
        {
          "options" : [
            {
              "6 piece (cal: 300 to 410)" : {
                "price" : 0
              }
            },
            {
              "12 piece (cal: 600 to 810)" : {
                "price" : 4.5
              }
            }
          ],
          "minChoose" : 1,
          "required" : true,
          "category" : "Choose a size",
          "maxChoose" : 1
        },
        {
          "options" : [
            {
              "Roasted (Plain)" : {
                "price" : 0
              }
            },
            {
              "Hot" : {
                "price" : 0
              }
            },
            {
              "BBQ" : {
                "price" : 0
              }
            },
            {
              "Sweet Chili" : {
                "price" : 0
              }
            }
          ],
          "minChoose" : 1,
          "required" : true,
          "category" : "Choose a Flavour",
          "maxChoose" : 1
        }
      ],
      "objectId" : "stKajFzUrD",
      "itemPrice" : 6.9900000000000002
    },
    {
      "mediaArray" : [
        {
          "__type" : "File",
          "name" : "boneless_chicken_wings",
          "url" : "https:\/\/s3-us-west-2.amazonaws.com\/wlmerchants\/SHP\/boneless_chicken_wings.jpg"
        }
      ],
      "itemDescription" : "",
      "live" : true,
      "itemName" : "Boneless Chicken Wings",
      "optionCategories" : [
        {
          "options" : [
            {
              "6 piece (cal: 360)" : {
                "price" : 0
              }
            },
            {
              "12 piece (cal: 720)" : {
                "price" : 4.5
              }
            }
          ],
          "minChoose" : 1,
          "required" : true,
          "category" : "Choose a size",
          "maxChoose" : 1
        },
        {
          "options" : [
            {
              "Roasted (Plain)" : {
                "price" : 0
              }
            },
            {
              "Hot" : {
                "price" : 0
              }
            },
            {
              "BBQ" : {
                "price" : 0
              }
            },
            {
              "Sweet Chili" : {
                "price" : 0
              }
            }
          ],
          "minChoose" : 1,
          "required" : true,
          "category" : "Choose a Flavour",
          "maxChoose" : 1
        }
      ],
      "objectId" : "7jfZBQu5S8",
      "itemPrice" : 6.9900000000000002
    }
  ]
}